Section 13 Data handling with dplyr | Data handling, exploratory analysis, and reporting in R
…
gini: the Gini coefficient (as a percentage). This is an estimate of income inequality, with larger values indicating more income inequality;

homework: an estimate of the average number of hours per week spent on homework by 15 year-olds, from a survey in 2012;

start.age: the age (in years) in which children start school.

13.3 Ordering the rows by a variable with the arrange() command

Suppose we want to see which countries got the highest score: we want to arrange the rows in the data frame maths in order according to the values in the column score. To do this we use the command

maths %>%
  arrange(score)

## # A tibble: 70 × 7
##    country            continent     score   gdp  gini homework start.age
##    <chr>              <chr>         <dbl> <dbl> <dbl>    <dbl>     <dbl>
##  1 Dominican Republic North America   328  6722  44.9     NA           6
##  2 Algeria            Africa          360  3844  27.6     NA           6
##  3 Tunisia            Africa          367  3689  35.8      3.5         6
##  4 Macedonia, FYR     Europe          371  5237  35.6     NA           6
##  5 Brazil             South America   377  8650  51.3      3.3         6
##  6 Jordan             Asia            380  4088  33.7      4.2         6
##  7 Indonesia          Asia            386  3570  39.5      4.9         7
##  8 Peru               South America   387  6046  44.3      5.5         6
##  9 Colombia           South America   390  5806  51.1      5.3         6
## 10 Lebanon            Asia            396  7914  31.8      3.3         6
## # ℹ 60 more rows

This has arranged the rows in ascending order of score. To see them in descending order, we include the desc() command:

maths %>%
  arrange(desc(score))

## # A tibble: 70 × 7
##    country              continent     score   gdp  gini homework start.age
##    <chr>                <chr>         <dbl> <dbl> <dbl>    <dbl>     <dbl>
##  1 Singapore            Asia            564 52961  NA        9.4         6
##  2 Hong Kong SAR, China Asia            548 43681  NA        6           6
##  3 Macao SAR, China     Asia            544 73187  NA        5.9         6
##  4 Japan                Asia            532 38894  32.1      3.8         6
##  5 B-S-J-G (China)      Asia            531  8123  42.2     13.8         6
##  6 Korea, Rep.          Asia            524 27539  31.6      2.9         6
##  7 Switzerland          Europe          521 78813  32.5      4           7
##  8 Estonia              Europe          520 17575  34.6      6.9         7
##  9 Canada               North America   516 42158  34        5.5         6
## 10 Netherlands          Europe          512 45295  28.6      5.8         6
## # ℹ 60 more rows
…
## # A tibble: 1 × 7
##   country        continent score   gdp  gini homework start.age
##   <chr>          <chr>     <dbl> <dbl> <dbl>    <dbl>     <dbl>
## 1 United Kingdom Europe      492 39899  34.1      4.9         5

13.5 Viewing and extracting data from a column

For larger data frames (with many columns), we may wish to view a subset only. For example, to select the score and country columns only from the maths data frame, we do

maths %>%
  select(score, country)

## # A tibble: 70 × 2
##    score country        
##    <dbl> <chr>          
##  1   413 Albania        
##  2   360 Algeria        
##  3   409 Argentina      
##  4   494 Australia      
##  5   497 Austria        
##  6   531 B-S-J-G (China)
##  7   507 Belgium        
##  8   377 Brazil         
##  9   441 Bulgaria       
## 10   516 Canada         
## # ℹ 60 more rows
…
this creates a new vector, in which the \(i\)th element will be TRUE if the gdp value for country \(i\) is greater than 17000, and FALSE otherwise. We will add this vector to the data frame, under the column name wealthiest. The command to create the new column is

mutate(wealthiest = maths$gdp > 17000)

but this doesn’t store the result. To put the new column in the maths data frame, we do

maths <- maths %>%
  mutate(wealthiest = maths$gdp > 17000)

You may now have too many columns to see in your console, so to check this has worked, we will do

maths %>%
  select(country, gdp, wealthiest)

## # A tibble: 70 × 3
##    country           gdp wealthiest
##    <chr>           <dbl> <lgl>     
##  1 Albania          4147 FALSE     
##  2 Algeria          3844 FALSE     
##  3 Argentina       12449 FALSE     
##  4 Australia       49928 TRUE      
##  5 Austria         44177 TRUE      
##  6 B-S-J-G (China)  8123 FALSE     
##  7 Belgium         41096 TRUE      
##  8 Brazil           8650 FALSE     
##  9 Bulgaria         7351 FALSE     
## 10 Canada          42158 TRUE      
## # ℹ 60 more rows
…
