Section 20 Maps with leaflet | Data handling, exploratory analysis, and reporting in R
…
library(sf)
boundaries <- read_sf('U:/MPS4110/EDA/Counties/CTYUA_MAY_2023_UK_BGC.shp') %>%
                  st_transform(crs = '+proj=longlat +datum=WGS84')

This creates an object of class sf: it’s more complicated than an ordinary dataframe, and we won’t worry too much about its structure. But if we try

print(boundaries)

## Simple feature collection with 218 features and 8 fields
## Geometry type: MULTIPOLYGON
## Dimension:     XY
## Bounding box:  xmin: -8.650007 ymin: 49.8648 xmax: 1.76368 ymax: 60.86074
## Geodetic CRS:  +proj=longlat +datum=WGS84
## # A tibble: 218 × 9
##    CTYUA23CD CTYUA23NM            CTYUA23NMW  BNG_E  BNG_N   LONG   LAT GlobalID
##  * <chr>     <chr>                <chr>       <dbl>  <dbl>  <dbl> <dbl> <chr>   
##  1 E06000001 Hartlepool           <NA>       447160 531474 -1.27   54.7 3bf4312…
##  2 E06000002 Middlesbrough        <NA>       451141 516887 -1.21   54.5 f97de8d…
##  3 E06000003 Redcar and Cleveland <NA>       464361 519597 -1.01   54.6 ef76d83…
##  4 E06000004 Stockton-on-Tees     <NA>       444940 518183 -1.31   54.6 05fc23f…
##  5 E06000005 Darlington           <NA>       428029 515648 -1.57   54.5 5a21326…
##  6 E06000006 Halton               <NA>       354246 382146 -2.69   53.3 f87a98b…
##  7 E06000007 Warrington           <NA>       362744 388456 -2.56   53.4 51f4cdf…
##  8 E06000008 Blackburn with Darw… <NA>       369490 422806 -2.46   53.7 11e5f05…
##  9 E06000009 Blackpool            <NA>       332819 436635 -3.02   53.8 8ec1c78…
## 10 E06000010 Kingston upon Hull,… <NA>       511894 431650 -0.304  53.8 3fef2d1…
## # ℹ 208 more rows
## # ℹ 1 more variable: geometry <MULTIPOLYGON [°]>
…
