Chapter 1 Exploratory Data Analysis using R | MPS114 - An Introduction to Data Science
…
If your data is an Excel spreadsheet in .xlsx format, you can either save it in Excel as a .csv file, or you can use the read_xlsx() command (for which you will need to load the readxl package first). For example, to import a file spreadsheet.xlsx, you would use the command

library(readxl)
mydata <- read_xlsx("spreadsheet.xlsx")

1.4 Data frames and tibbles in R

maths is a type of object known as a data frame, which is the main way of organising data in R. In fact, it’s actually a special type of data frame known as a “tibble”. We’ll always be using tibbles rather than ordinary data frames here, but we won’t worry too much about the difference.

The data are arranged in the data frame as they were in the .csv file, with one row per country, and one column per variable. Typing maths (and pressing return) in the R console will display the first ten rows only, and as many columns as will fit in the window.

maths

## # A tibble: 70 × 7
##    country         continent     score   gdp  gini homework start.age
##    <chr>           <chr>         <dbl> <dbl> <dbl>    <dbl>     <dbl>
##  1 Albania         Europe          413  4147  29        5.1         6
##  2 Algeria         Africa          360  3844  27.6     NA           6
##  3 Argentina       South America   409 12449  42.7      3.7         6
##  4 Australia       Oceanea         494 49928  34.7      6           5
##  5 Austria         Europe          497 44177  30.5      4.5         6
##  6 B-S-J-G (China) Asia            531  8123  42.2     13.8         6
##  7 Belgium         Europe          507 41096  28.1      5.5         6
##  8 Brazil          South America   377  8650  51.3      3.3         6
##  9 Bulgaria        Europe          441  7351  37.4      5.6         7
## 10 Canada          North America   516 42158  34        5.5         6
## # ℹ 60 more rows
…
If we want to see all 70 rows, we can either use the command

print(maths, n = 70)

or, in RStudio, we can click on maths in the Environment window.

1.4.1 Ordering the rows by a variable with the arrange() command

Suppose we want to see which countries got the highest score: we want to arrange the rows in the dataframe maths in order according to the values in the column score. To do this we use the command

maths %>%
  arrange(score)

## # A tibble: 70 × 7
##    country            continent     score   gdp  gini homework start.age
##    <chr>              <chr>         <dbl> <dbl> <dbl>    <dbl>     <dbl>
##  1 Dominican Republic North America   328  6722  44.9     NA           6
##  2 Algeria            Africa          360  3844  27.6     NA           6
##  3 Tunisia            Africa          367  3689  35.8      3.5         6
##  4 Macedonia, FYR     Europe          371  5237  35.6     NA           6
##  5 Brazil             South America   377  8650  51.3      3.3         6
##  6 Jordan             Asia            380  4088  33.7      4.2         6
##  7 Indonesia          Asia            386  3570  39.5      4.9         7
##  8 Peru               South America   387  6046  44.3      5.5         6
##  9 Colombia           South America   390  5806  51.1      5.3         6
## 10 Lebanon            Asia            396  7914  31.8      3.3         6
## # ℹ 60 more rows

This has arranged the rows in ascending order of score. To see them in descending order, we include the desc() command:

maths %>%
  arrange(desc(score))

## # A tibble: 70 × 7
##    country              continent     score   gdp  gini homework start.age
##    <chr>                <chr>         <dbl> <dbl> <dbl>    <dbl>     <dbl>
##  1 Singapore            Asia            564 52961  NA        9.4         6
##  2 Hong Kong SAR, China Asia            548 43681  NA        6           6
##  3 Macao SAR, China     Asia            544 73187  NA        5.9         6
##  4 Japan                Asia            532 38894  32.1      3.8         6
##  5 B-S-J-G (China)      Asia            531  8123  42.2     13.8         6
##  6 Korea, Rep.          Asia            524 27539  31.6      2.9         6
##  7 Switzerland          Europe          521 78813  32.5      4           7
##  8 Estonia              Europe          520 17575  34.6      6.9         7
##  9 Canada               North America   516 42158  34        5.5         6
## 10 Netherlands          Europe          512 45295  28.6      5.8         6
## # ℹ 60 more rows
…
## # A tibble: 1 × 7
##   country        continent score   gdp  gini homework start.age
##   <chr>          <chr>     <dbl> <dbl> <dbl>    <dbl>     <dbl>
## 1 United Kingdom Europe      492 39899  34.1      4.9         5

1.4.3 Viewing and extracting data from a column

For larger data frames (with many columns), we may wish to view a subset only. For example, to select the score and country columns only from the maths data frame, we do

maths %>%
  select(score, country)

## # A tibble: 70 × 2
##    score country        
##    <dbl> <chr>          
##  1   413 Albania        
##  2   360 Algeria        
##  3   409 Argentina      
##  4   494 Australia      
##  5   497 Austria        
##  6   531 B-S-J-G (China)
##  7   507 Belgium        
##  8   377 Brazil         
##  9   441 Bulgaria       
## 10   516 Canada         
## # ℹ 60 more rows
…
maths %>%
  mutate(wealthiest = maths$gdp > 17000)

but this doesn’t store the result. To put the new column in the maths dataframe, we do

maths <- maths %>%
  mutate(wealthiest = maths$gdp > 17000)

You may now have too many columns to see in your console, so to check this has worked, we will do

maths %>%
  select(country, gdp, wealthiest)

## # A tibble: 70 × 3
##    country           gdp wealthiest
##    <chr>           <dbl> <lgl>     
##  1 Albania          4147 FALSE     
##  2 Algeria          3844 FALSE     
##  3 Argentina       12449 FALSE     
##  4 Australia       49928 TRUE      
##  5 Austria         44177 TRUE      
##  6 B-S-J-G (China)  8123 FALSE     
##  7 Belgium         41096 TRUE      
##  8 Brazil           8650 FALSE     
##  9 Bulgaria         7351 FALSE     
## 10 Canada          42158 TRUE      
## # ℹ 60 more rows
…
so, for example,

maths %>%
  filter(continent == "Europe")

is the same as filter(maths, continent == "Europe").

The %>% syntax can be easier to read when we want to chain several functions together. Suppose we want to see the top 10 countries by score, within Europe. This will involve using both the arrange() and filter() commands. We can chain these together as follows

maths %>%
  filter(continent == "Europe") %>%
  arrange(desc(score))

## # A tibble: 39 × 8
##    country     continent score   gdp  gini homework start.age wealthiest
##    <chr>       <chr>     <dbl> <dbl> <dbl>    <dbl>     <dbl> <lgl>     
##  1 Switzerland Europe      521 78813  32.5      4           7 TRUE      
##  2 Estonia     Europe      520 17575  34.6      6.9         7 TRUE      
##  3 Netherlands Europe      512 45295  28.6      5.8         6 TRUE      
##  4 Denmark     Europe      511 53418  28.5      4.3         6 TRUE      
##  5 Finland     Europe      511 43090  26.8      2.8         7 TRUE      
##  6 Slovenia    Europe      510 21305  25.7      3.7         6 TRUE      
##  7 Belgium     Europe      507 41096  28.1      5.5         6 TRUE      
##  8 Germany     Europe      506 41936  31.4      4.7         6 TRUE      
##  9 Ireland     Europe      504 61606  31.9      7.3         5 TRUE      
## 10 Poland      Europe      504 12372  32.1      6.6         7 FALSE     
## # ℹ 29 more rows
…
