Chapter 2 Machine Learning | MPS114 - An Introduction to Data Science
…
## [1] setosa     versicolor
## Levels: setosa versicolor virginica

So, out of the three possible Levels, the KNN algorithm classifies flower A as setosa and flower B as versicolor. This agrees with what we could see in Figure 2.7

2.1.5.2 Using knn() with the handwritten digits

Returning to the handwritten digits, suppose we have the training images and class labels stored in a single data frame called training_set, where each row is one image, with the class label in column 1 and the pixel values in columns 2 to 785. We display the first 5 columns below:

training_set[, 1:5]

## # A tibble: 60,000 × 5
##       X1    X2    X3    X4    X5
##    <dbl> <dbl> <dbl> <dbl> <dbl>
##  1     5     0     0     0     0
##  2     0     0     0     0     0
##  3     4     0     0     0     0
##  4     1     0     0     0     0
##  5     9     0     0     0     0
##  6     2     0     0     0     0
##  7     1     0     0     0     0
##  8     3     0     0     0     0
##  9     1     0     0     0     0
## 10     4     0     0     0     0
## # ℹ 59,990 more rows
…
